{
  "kind": "singleType",
  "collectionName": "current_exhibitions",
  "info": {
    "name": "Current Exhibition"
  },
  "options": {
    "increments": true,
    "timestamps": true,
    "draftAndPublish": true
  },
  "pluginOptions": {},
  "attributes": {
    "exhibition": {
      "model": "exhibition"
    }
  }
}
